…
homicide_df
```

    ## # A tibble: 52,178 × 14
    ##    city_state     uid        reported_date victim_last  victim_first victim_race
    ##    <chr>          <chr>              <dbl> <chr>        <chr>        <chr>      
    ##  1 Albuquerque,NM Alb-000001      20100504 GARCIA       JUAN         Hispanic   
    ##  2 Albuquerque,NM Alb-000002      20100216 MONTOYA      CAMERON      Hispanic   
    ##  3 Albuquerque,NM Alb-000003      20100601 SATTERFIELD  VIVIANA      White      
    ##  4 Albuquerque,NM Alb-000004      20100101 MENDIOLA     CARLOS       Hispanic   
    ##  5 Albuquerque,NM Alb-000005      20100102 MULA         VIVIAN       White      
    ##  6 Albuquerque,NM Alb-000006      20100126 BOOK         GERALDINE    White      
    ##  7 Albuquerque,NM Alb-000007      20100127 MALDONADO    DAVID        Hispanic   
    ##  8 Albuquerque,NM Alb-000008      20100127 MALDONADO    CONNIE       Hispanic   
    ##  9 Albuquerque,NM Alb-000009      20100130 MARTIN-LEYVA GUSTAVO      White      
    ## 10 Albuquerque,NM Alb-000010      20100210 HERRERA      ISRAEL       Hispanic   
    ## # … with 52,168 more rows, and 8 more variables: victim_age <dbl>,
    ## #   victim_sex <chr>, city <chr>, state <chr>, lat <dbl>, lon <dbl>,
    ## #   disposition <chr>, resolution <chr>
…
  group_by(city_state) %>% 
  summarize(
    unsolved = sum(resolution == "unsolved"),
    n = n()
  ) %>% 
  mutate(
    test_results = map2(unsolved, n, prop.test),
    tidy_results = map(test_results, broom::tidy)
  ) %>% 
  select(city_state, tidy_results) %>% 
  unnest(tidy_results) %>% 
  select(city_state, estimate, starts_with("conf"))
```

    ## # A tibble: 50 × 4
    ##    city_state     estimate conf.low conf.high
    ##    <chr>             <dbl>    <dbl>     <dbl>
    ##  1 Albuquerque,NM    0.386    0.337     0.438
    ##  2 Atlanta,GA        0.383    0.353     0.415
    ##  3 Baltimore,MD      0.646    0.628     0.663
    ##  4 Baton Rouge,LA    0.462    0.414     0.511
    ##  5 Birmingham,AL     0.434    0.399     0.469
    ##  6 Boston,MA         0.505    0.465     0.545
    ##  7 Buffalo,NY        0.612    0.569     0.654
    ##  8 Charlotte,NC      0.300    0.266     0.336
    ##  9 Chicago,IL        0.736    0.724     0.747
    ## 10 Cincinnati,OH     0.445    0.408     0.483
    ## # … with 40 more rows
